{
    "projectId": "7c798051-b5d8-43cf-9e7c-8b99b8a9803b",
    "author": "jared@thedelta.io",
    "trophies": 1,
    "justification": "“team organization, rules-lawyering and harrassment of hackathon management"
}
